[{"line":1,"elements":[{"line":3,"name":"","description":"","type":"background","keyword":"Background","steps":[{"name":"def endPoint = 'https:\/\/nodejs-qa-training.herokuapp.com\/'","result":{"duration":217500,"status":"passed"},"match":{"location":"karate","arguments":[]},"keyword":"*","line":4,"doc_string":{"content_type":"","value":"15:40:20.954 skipping bootstrap configuration: could not find or read file: classpath:karate-config.js","line":4}},{"name":"def resource = '\/users'","result":{"duration":2465100,"status":"passed"},"match":{"location":"karate","arguments":[]},"keyword":"*","line":5},{"name":"def getAutorizationLoguin = call read('Login.feature@FlujoExitoso')","result":{"duration":519444200,"status":"passed"},"match":{"location":"karate","arguments":[]},"keyword":"*","line":6},{"name":"Login.feature","result":{"duration":0,"status":"passed"},"match":{"location":"karate","arguments":[]},"keyword":"","line":6},{"name":"def endPoint = 'https:\/\/nodejs-qa-training.herokuapp.com\/'","result":{"duration":2299600,"status":"passed"},"match":{"location":"karate","arguments":[]},"keyword":"> *","line":4,"doc_string":{"content_type":"","value":"15:40:20.964 scenario called at line: 8 by tag: @FlujoExitoso","line":4}},{"name":"def resource = '\/users\/sessions'","result":{"duration":141900,"status":"passed"},"match":{"location":"karate","arguments":[]},"keyword":"> *","line":5},{"name":"def jsonParametroLoguin =","result":{"duration":222600,"status":"passed"},"match":{"location":"karate","arguments":[]},"keyword":"> *","line":9,"doc_string":{"content_type":"","value":"{\n  email: 'admin@wolox.com.ar',\n  password: 'candidatoWolox2020'\n}","line":9}},{"name":"url (endPoint)","result":{"duration":416300,"status":"passed"},"match":{"location":"karate","arguments":[]},"keyword":"> Given","line":16},{"name":"path (resource)","result":{"duration":318600,"status":"passed"},"match":{"location":"karate","arguments":[]},"keyword":"> And","line":17},{"name":"request jsonParametroLoguin","result":{"duration":12800,"status":"passed"},"match":{"location":"karate","arguments":[]},"keyword":"> And","line":18},{"name":"method Post","result":{"duration":496969500,"status":"passed"},"match":{"location":"karate","arguments":[]},"keyword":"> When","line":19,"doc_string":{"content_type":"","value":"15:40:20.971 request:\n1 > POST https:\/\/nodejs-qa-training.herokuapp.com\/users\/sessions\n1 > Accept-Encoding: gzip,deflate\n1 > Connection: Keep-Alive\n1 > Content-Length: 62\n1 > Content-Type: application\/json; charset=UTF-8\n1 > Host: nodejs-qa-training.herokuapp.com\n1 > User-Agent: Apache-HttpClient\/4.5.5 (Java\/1.8.0_191)\n{\"email\":\"admin@wolox.com.ar\",\"password\":\"candidatoWolox2020\"}\n\n15:40:21.466 response time in milliseconds: 494,19\n1 < 200\n1 < Authorization: eyJ0eXAiOiJKV1QiLCJhbGciOiJIUzI1NiJ9.eyJ1c2VySWQiOjE0Niwicm9sZSI6ImFkbWluIiwiaWF0IjoxNjAwMDI5NjIyLjY3OCwiZXhwIjoxNjAwMDMxNDIyLjY3OH0.IabzNfht1sVJhbTXq0ZsMN9Zb65enWdiNf05UpxC-h8\n1 < Connection: keep-alive\n1 < Content-Length: 51\n1 < Content-Type: application\/json; charset=utf-8\n1 < Date: Sun, 13 Sep 2020 20:40:22 GMT\n1 < Etag: W\/\"33-Ahe255ovwlqT3wa+\/HNiVkn6FU4\"\n1 < Server: Cowboy\n1 < Via: 1.1 vegur\n1 < X-Powered-By: Express\n{\"user_id\":146,\"token_expires_at\":\"1600031422.678\"}","line":19}},{"name":"status 200","result":{"duration":11400,"status":"passed"},"match":{"location":"karate","arguments":[]},"keyword":"> Then","line":20},{"name":"def jsonBodyResposeValidate = read('..\/jsons\/JsonLoguinBodyResponseValidate.json')","result":{"duration":2499800,"status":"passed"},"match":{"location":"karate","arguments":[]},"keyword":"> *","line":21},{"name":"match response == jsonBodyResposeValidate","result":{"duration":130400,"status":"passed"},"match":{"location":"karate","arguments":[]},"keyword":"> And","line":22},{"name":"def jsonHeaderResposeValidate = read('..\/jsons\/JsonHeaderResponseValidate.json')","result":{"duration":1922900,"status":"passed"},"match":{"location":"karate","arguments":[]},"keyword":"> *","line":23},{"name":"match responseHeaders == jsonHeaderResposeValidate","result":{"duration":800300,"status":"passed"},"match":{"location":"karate","arguments":[]},"keyword":"> And","line":24},{"name":"print response","result":{"duration":220800,"status":"passed"},"match":{"location":"karate","arguments":[]},"keyword":"> *","line":25,"doc_string":{"content_type":"","value":"15:40:21.472 [print] {\n  \"user_id\": 146,\n  \"token_expires_at\": \"1600031422.678\"\n}","line":25}}]},{"line":8,"name":"Lista de Usuario","description":"","id":"lista-de-usuario","type":"scenario","keyword":"Scenario","steps":[{"name":"url (endPoint)","result":{"duration":525900,"status":"passed"},"match":{"location":"karate","arguments":[]},"keyword":"Given","line":9},{"name":"path (resource)","result":{"duration":468200,"status":"passed"},"match":{"location":"karate","arguments":[]},"keyword":"And","line":10},{"name":"header Authorization = (getAutorizationLoguin).responseHeaders['Authorization'][0]","result":{"duration":5955200,"status":"passed"},"match":{"location":"karate","arguments":[]},"keyword":"And","line":11},{"name":"method Get","result":{"duration":532244800,"status":"passed"},"match":{"location":"karate","arguments":[]},"keyword":"When","line":12,"doc_string":{"content_type":"","value":"15:40:21.485 request:\n1 > GET https:\/\/nodejs-qa-training.herokuapp.com\/users\n1 > Accept-Encoding: gzip,deflate\n1 > Authorization: eyJ0eXAiOiJKV1QiLCJhbGciOiJIUzI1NiJ9.eyJ1c2VySWQiOjE0Niwicm9sZSI6ImFkbWluIiwiaWF0IjoxNjAwMDI5NjIyLjY3OCwiZXhwIjoxNjAwMDMxNDIyLjY3OH0.IabzNfht1sVJhbTXq0ZsMN9Zb65enWdiNf05UpxC-h8\n1 > Connection: Keep-Alive\n1 > Host: nodejs-qa-training.herokuapp.com\n1 > User-Agent: Apache-HttpClient\/4.5.5 (Java\/1.8.0_191)\n\n15:40:22.016 response time in milliseconds: 528,93\n1 < 200\n1 < Connection: keep-alive\n1 < Content-Length: 1031\n1 < Content-Type: application\/json; charset=utf-8\n1 < Date: Sun, 13 Sep 2020 20:40:23 GMT\n1 < Etag: W\/\"407-Vqr\/s1v2BQht4R1fdVbyoAA9D0Q\"\n1 < Server: Cowboy\n1 < Via: 1.1 vegur\n1 < X-Powered-By: Express\n{\"total_count\":33,\"count\":10,\"total_pages\":4,\"limit\":10,\"offset\":0,\"current_page\":1,\"page\":[{\"first_name\":\"Hernan\",\"last_name\":\"Garcia\",\"email\":\"h6@wolox.com.ar\",\"role\":\"regular\"},{\"first_name\":\"regular\",\"last_name\":\"regular\",\"email\":\"regular@wolox.com.ar\",\"role\":\"regular\"},{\"first_name\":\"Juan\",\"last_name\":\"Perez\",\"email\":\"jperez@wolox.com.ar\",\"role\":\"regular\"},{\"first_name\":\"Hernan\",\"last_name\":\"Garcia\",\"email\":\"h7@wolox.com.ar\",\"role\":\"regular\"},{\"first_name\":\"Juan\",\"last_name\":\"Per2ez\",\"email\":\"jperwez@wolox.com.ar\",\"role\":\"regular\"},{\"first_name\":\"Ju4an\",\"last_name\":\"Per2ez\",\"email\":\"jperwetz@wolox.com.ar\",\"role\":\"regular\"},{\"first_name\":\"45543\",\"last_name\":\"Per2ez\",\"email\":\"jpterwetz@wolox.com.ar\",\"role\":\"regular\"},{\"first_name\":\"Hernan\",\"last_name\":\"Garcia\",\"email\":\"h14@wolox.com.ar\",\"role\":\"regular\"},{\"first_name\":\"Hernan\",\"last_name\":\"Garcia\",\"email\":\"h78@wolox.com.ar\",\"role\":\"regular\"},{\"first_name\":\"Hernan\",\"last_name\":\"Garcia\",\"email\":\"h@wolox.com.ar\",\"role\":\"regular\"}],\"previous_page\":null,\"next_page\":2}","line":12}},{"name":"status 200","result":{"duration":8700,"status":"passed"},"match":{"location":"karate","arguments":[]},"keyword":"Then","line":13},{"name":"def jsonBodyResposeValidate = read('..\/jsons\/JsonUsuarioBodyResponseValidate.json')","result":{"duration":5115700,"status":"passed"},"match":{"location":"karate","arguments":[]},"keyword":"*","line":14},{"name":"print response","result":{"duration":1088300,"status":"passed"},"match":{"location":"karate","arguments":[]},"keyword":"*","line":15,"doc_string":{"content_type":"","value":"15:40:22.023 [print] {\n  \"total_count\": 33,\n  \"count\": 10,\n  \"total_pages\": 4,\n  \"limit\": 10,\n  \"offset\": 0,\n  \"current_page\": 1,\n  \"page\": [\n    {\n      \"first_name\": \"Hernan\",\n      \"last_name\": \"Garcia\",\n      \"email\": \"h6@wolox.com.ar\",\n      \"role\": \"regular\"\n    },\n    {\n      \"first_name\": \"regular\",\n      \"last_name\": \"regular\",\n      \"email\": \"regular@wolox.com.ar\",\n      \"role\": \"regular\"\n    },\n    {\n      \"first_name\": \"Juan\",\n      \"last_name\": \"Perez\",\n      \"email\": \"jperez@wolox.com.ar\",\n      \"role\": \"regular\"\n    },\n    {\n      \"first_name\": \"Hernan\",\n      \"last_name\": \"Garcia\",\n      \"email\": \"h7@wolox.com.ar\",\n      \"role\": \"regular\"\n    },\n    {\n      \"first_name\": \"Juan\",\n      \"last_name\": \"Per2ez\",\n      \"email\": \"jperwez@wolox.com.ar\",\n      \"role\": \"regular\"\n    },\n    {\n      \"first_name\": \"Ju4an\",\n      \"last_name\": \"Per2ez\",\n      \"email\": \"jperwetz@wolox.com.ar\",\n      \"role\": \"regular\"\n    },\n    {\n      \"first_name\": \"45543\",\n      \"last_name\": \"Per2ez\",\n      \"email\": \"jpterwetz@wolox.com.ar\",\n      \"role\": \"regular\"\n    },\n    {\n      \"first_name\": \"Hernan\",\n      \"last_name\": \"Garcia\",\n      \"email\": \"h14@wolox.com.ar\",\n      \"role\": \"regular\"\n    },\n    {\n      \"first_name\": \"Hernan\",\n      \"last_name\": \"Garcia\",\n      \"email\": \"h78@wolox.com.ar\",\n      \"role\": \"regular\"\n    },\n    {\n      \"first_name\": \"Hernan\",\n      \"last_name\": \"Garcia\",\n      \"email\": \"h@wolox.com.ar\",\n      \"role\": \"regular\"\n    }\n  ],\n  \"previous_page\": null,\n  \"next_page\": 2\n}","line":15}},{"name":"match each response.page[*] == jsonBodyResposeValidate","result":{"duration":1063400,"status":"passed"},"match":{"location":"karate","arguments":[]},"keyword":"And","line":16},{"name":"def jsonBodyResposeValidate = read('..\/jsons\/JsonListaUsuarioBodyResponseValidate.json')","result":{"duration":4402800,"status":"passed"},"match":{"location":"karate","arguments":[]},"keyword":"*","line":17},{"name":"match response == jsonBodyResposeValidate","result":{"duration":218800,"status":"passed"},"match":{"location":"karate","arguments":[]},"keyword":"And","line":18}]}],"name":"src\/test\/resources\/features\/ListaUsuario.feature","description":"Listar los usuarios creados","id":"listar-los-usuarios-creados","keyword":"Feature","uri":"src\/test\/resources\/features\/ListaUsuario.feature"}]